[
    {
        "id": "1",
        "name": "Điểm",
        "sub": "Kiểm tra điểm của mình",
        "color": "qrcode",
        "color_sub": "red"
    },
    {
        "id": "2",
        "name": "Số tín chỉ",
        "sub": "Kiểm tra số tín chỉ của mình",
        "color": "qrcode",
        "color_sub": "red"
    },
    {
        "id": "3",
        "name": "Học phí",
        "sub": "Kiểm tra học phí của mình",
        "color": "qrcode",
        "color_sub": "red"
    },
    {
        "id": "4",
        "name": "Công nợ",
        "sub": "Kiểm tra điểm của mình",
        "color": "qrcode",
        "color_sub": "red"
    }

]